{ "_id" : "wcRgrRf6FXDWk3JyG", "name" : "Brayherd", "alliance" : "Chaos" }
{ "_id" : "v4JM9rRcxY8SJudgu", "name" : "Eshin", "alliance" : "Chaos" }
{ "_id" : "zuW6owZjhcsE3Z96s", "name" : "Everchosen", "alliance" : "Chaos" }
{ "_id" : "5ubozH2QxuvBeJxSx", "name" : "Khorne", "alliance" : "Chaos" }
{ "_id" : "RdBGDAJevNm6yTDrH", "name" : "Moulder", "alliance" : "Chaos" }
{ "_id" : "tw9gSboTQS6QyaTCE", "name" : "Nurgle", "alliance" : "Chaos" }
{ "_id" : "mMAbof2oTWeyFJqxH", "name" : "Pestilens", "alliance" : "Chaos" }
{ "_id" : "D4zzeviHmsejJqsT6", "name" : "Skyre", "alliance" : "Chaos" }
{ "_id" : "NDLcsTYNW5THA6DjK", "name" : "Slaanesh", "alliance" : "Chaos" }
{ "_id" : "8KjBoofGugisPJdGG", "name" : "Slaves to Darkness", "alliance" : "Chaos" }
{ "_id" : "GwBmKFvGwZvNtjHEu", "name" : "Thunderscorn", "alliance" : "Chaos" }
{ "_id" : "duEWHofcZKCyoNCcZ", "name" : "Tzeentch", "alliance" : "Chaos" }
{ "_id" : "aTKpaR6GzNWk5QbNd", "name" : "Verminus", "alliance" : "Chaos" }
{ "_id" : "Lnyox8TeZ5NZNYzpX", "name" : "Warherd", "alliance" : "Chaos" }
{ "_id" : "uffX7wkxwSM53gQhD", "name" : "Fist of the Everchosen", "alliance" : "Chaos" }
{ "_id" : "qrqhbAqFTfaD8ZHrS", "name" : "Deadwalkers", "alliance" : "Death" }
{ "_id" : "mdMdpeDxdt29voXiS", "name" : "Deathlords", "alliance" : "Death" }
{ "_id" : "JLByqq3Jt6ASsLrHS", "name" : "Deathmages", "alliance" : "Death" }
{ "_id" : "GSPZBvyR6LhtBuYat", "name" : "Deathrattle", "alliance" : "Death" }
{ "_id" : "q5XtAws7fAyjKbZE8", "name" : "Flesh Eater Courts", "alliance" : "Death" }
{ "_id" : "mFdxgPFRJqqYweNz9", "name" : "Nighthaunt", "alliance" : "Death" }
{ "_id" : "gMdSwxFLf9dPXFgaC", "name" : "Soulblight", "alliance" : "Death" }
{ "_id" : "BrYHXa7hm92KdGhyu", "name" : "Aleguzzler Gargants", "alliance" : "Destruction" }
{ "_id" : "5Kf4onat6GYRM29GF", "name" : "Beastclaw Raiders", "alliance" : "Destruction" }
{ "_id" : "R7pMD5miSnj4iCQS9", "name" : "Bonesplitterz", "alliance" : "Destruction" }
{ "_id" : "KTbhnLKrMshqAdp3R", "name" : "Firebellies", "alliance" : "Destruction" }
{ "_id" : "ZA3ZxrFjevbt2CdND", "name" : "Gitmob Grots", "alliance" : "Destruction" }
{ "_id" : "qwsiwsqdRia9s2egM", "name" : "Greenskinz", "alliance" : "Destruction" }
{ "_id" : "kZfmuet2Z87NAYFr7", "name" : "Gutbusters", "alliance" : "Destruction" }
{ "_id" : "6vp9oMsCQfm93vamg", "name" : "Ironjawz", "alliance" : "Destruction" }
{ "_id" : "t4trfhNnYa6gBT54f", "name" : "Maneaters", "alliance" : "Destruction" }
{ "_id" : "NvmBfye2Smt2eoQZZ", "name" : "Monsters of Destruction", "alliance" : "Destruction" }
{ "_id" : "eohxqJg6TtWoQDAuB", "name" : "Moonclan Grots", "alliance" : "Destruction" }
{ "_id" : "gKxcueRtqDvTgxPsn", "name" : "Ogre Kingdoms", "alliance" : "Destruction" }
{ "_id" : "52NFwtF3DPJ3JohfJ", "name" : "Orcs & Goblins", "alliance" : "Destruction" }
{ "_id" : "yybtxDRaMYrfrqox7", "name" : "Spiderfang Grots", "alliance" : "Destruction" }
{ "_id" : "LEmncw6tgRD8ARxhT", "name" : "Troggoths", "alliance" : "Destruction" }
{ "_id" : "nryupbzQFaJjPyArc", "name" : "Aelves", "alliance" : "Order" }
{ "_id" : "MxFTftgDZmui4H4Ww", "name" : "Collegiate Arcane", "alliance" : "Order" }
{ "_id" : "DAao57EMytwbtYbs7", "name" : "Darkling Covens", "alliance" : "Order" }
{ "_id" : "BRSEjJCyoP8BiTN2e", "name" : "Daughters of Khaine", "alliance" : "Order" }
{ "_id" : "iPPturMDzKhBzLP5S", "name" : "Devoted of Sigmar", "alliance" : "Order" }
{ "_id" : "RckmmY2mhemtGq5kq", "name" : "Dispossessed", "alliance" : "Order" }
{ "_id" : "G5cr5E7jqKY7L7zwb", "name" : "Eldrich Council", "alliance" : "Order" }
{ "_id" : "qpQPuqbBuraiXzss9", "name" : "Free Peoples", "alliance" : "Order" }
{ "_id" : "xfTDxLosKRieHWaKh", "name" : "Fyreslayers", "alliance" : "Order" }
{ "_id" : "z3vvTz3DiY6Hr2oox", "name" : "Idoneth Deepkin", "alliance" : "Order" }
{ "_id" : "PPM279JRAw9YkoujW", "name" : "Ironweld Arsenal", "alliance" : "Order" }
{ "_id" : "ixfiydo37pDy8rBqC", "name" : "Kharadron Overlords", "alliance" : "Order" }
{ "_id" : "S5zNSk8iaFmPCb9LZ", "name" : "Lion Rangers", "alliance" : "Order" }
{ "_id" : "PvS57BiXxQmK63APA", "name" : "Monsters of Order", "alliance" : "Order" }
{ "_id" : "z2v2GhNue8CSFZpGN", "name" : "Order Draconis", "alliance" : "Order" }
{ "_id" : "hYGNgZZxn52mryqhc", "name" : "Order Serpentis", "alliance" : "Order" }
{ "_id" : "qSRZdqdAN83CyC3eE", "name" : "Phoenix temple", "alliance" : "Order" }
{ "_id" : "uD8bCAThzmbqBPZ6A", "name" : "Scourge Privateers", "alliance" : "Order" }
{ "_id" : "2Af58sBEbzHkCLEJP", "name" : "Seraphon", "alliance" : "Order" }
{ "_id" : "EJg7zmTPo3DGfrb7A", "name" : "Shadowblades", "alliance" : "Order" }
{ "_id" : "u5X4kNeYNw4tzxiiT", "name" : "Stormcast Eternal", "alliance" : "Order" }
{ "_id" : "jYFoiDaz72Pv4ee7N", "name" : "Swifthawk Agents", "alliance" : "Order" }
{ "_id" : "DhnPsconS3wQERkRx", "name" : "Sylvaneth", "alliance" : "Order" }
{ "_id" : "w2KoD8PKDRtHP39ye", "name" : "Wanderers", "alliance" : "Order" }
{ "_id" : { "$oid" : "5b48db5e08faf8a4e43a2049" }, "name" : "Chaos", "alliance" : "Chaos" }
{ "_id" : { "$oid" : "5b48db8508faf8a4e43a27c8" }, "name" : "Order", "alliance" : "Order" }
{ "_id" : { "$oid" : "5b48db9008faf8a4e43a29ab" }, "name" : "Destruction", "alliance" : "Destruction" }
{ "_id" : "5b48db6908faf8aa", "name" : "Death", "alliance" : "Death" }
{ "_id" : "MvygMD2HYyqnxf6CE", "name" : "Grand Host of Nagash", "alliance" : "Death" }
{ "_id" : "kXpEIXUZkuDfLW", "name" : "Legion of Night", "alliance" : "Death" }
{ "_id" : "oKjxofFZoAgPCt", "name" : "Legion of Sacrament", "alliance" : "Death" }
{ "_id" : "GNhsyDAzwKvZLL", "name" : "Legion of Blood", "alliance" : "Death" }
{ "_id" : "EYWks2cCbH5YxMDME", "name" : "Masterclan", "alliance" : "Chaos" }
