{ "_id" : "ykXnlGSjkHbpDc", "name" : "Aethervoid Pendulum", "castValue" : 6, "costPerUnit" : 40, "abilities" : [ { "name" : "Summon Aethervoid Pendulum", "text" : "Summon Aethervoid Pendulum has a casting value of 6. If successfully cast, set up an Aethervoid Pendulum model wholly within 6\" of the caster so that it points lengthways in the direction you wish it to move.", "phase" : [ "Hero" ], "when" : "During" }, { "name" : "Predatory", "text" : "An Aethervoid Pendulum is a predatory endless spell. It can move up to 8\" and can fly.", "phase" : [ "Round" ], "when" : "Start" }, { "name" : "Slicing Into Reality", "text" : "When this model is set up, the player who set it up can immediately make a move with it.", "phase" : [ "Hero" ], "when" : "During" }, { "name" : "Scything Blade", "text" : "After this model has moved, each unit that has any models it passed across, and each other unit that is within 1\" of it at the end of its move, suffers D6 mortal wounds.", "phase" : [ "Round", "Hero" ], "when" : "Start" }, { "name" : "Unstoppable Mechanism", "text" : "Whenever you set up an Aethervoid Pendulum, you must place it lengthways in the direction you wish it to move. Whenever it moves, move it in a straight line in that direction.", "phase" : [ "Hero" ], "when" : "During" } ] }
{ "_id" : "QPlrrCRNOOTzze", "name" : "Balewind Vortex", "castValue" : 6, "costPerUnit" : 40, "abilities" : [ { "name" : "Summon Balewind Vortex", "text" : "Summon Balewind Vortex has a casting value of 6. Wizards with a Wounds characteristic of 9 or more, that are part of a unit of two or more models, or that are already on a Balewind Vortex, cannot attempt to cast this spell. If successfully cast, set up a Balewind Vortex model within 1\" of the caster and more than 3\" from any enemy models, and then place the caster on the upper platform./n As long as the Balewind Vortex remains on the battlefield, the caster and the Balewind Vortex are treated as being a single model from the caster’s army that uses the caster’s warscroll as well as the endless spells rules. It is treated as an enemy model by the opposing player’s army. A Wizard on a Balewind Vortex cannot move./n If a Wizard on a Balewind Vortex attempts to dispel it, the attempt is automatically successful (do not roll any dice). This uses up the additional spell that the Wizard would have received in that hero phase, and still counts as the single attempt they can make to dispel an endless spell this hero phase, but allows them to use any remaining spell casting attempts normally./n If the Wizard on the Balewind Vortex is slain, then the Balewind Vortex is immediately dispelled and removed from play along with the slain Wizard./n If a Balewind Vortex is dispelled and the Wizard on it has not been slain, set up the Wizard wholly within 6\" of the Balewind Vortex and more than 3\" from any enemy models, and then remove the Balewind Vortex model from play. If it is impossible to set up the Wizard, then the Wizard is slain", "phase" : [ "Hero" ], "when" : "During" }, { "name" : "Against the Aetheric Wind", "text" : "Add 1 to save rolls for a Wizard on a Balewind Vortex. ", "phase" : [ "Persistant" ], "when" : "All" }, { "name" : "Arcane Invigoration", "text" : "A Wizard on a Balewind Vortex can attempt to cast an additional spell in each of their hero phases (including the turn in which the Summon Balewind Vortex spell was cast), and you can add 6\" to the range of any spells that the Wizard casts.", "phase" : [ "Hero" ], "when" : "During" } ] }
{ "_id" : "qXLIzEzEDUFBDl", "name" : "Cronomantic Cogs", "castValue" : 7, "costPerUnit" : 60, "abilities" : [ { "name" : "Summon Cronomantic Cogs", "text" : "Summon Chronomantic Cogs has a casting value of 7. If successfully cast, set up a Chronomantic Cogs model wholly within 12\" of the caster. ", "phase" : [ "Hero" ], "when" : "During" }, { "name" : "Mechanisms of Time", "text" : "In their controlling player’s hero phase, a single Wizard within 9\" of this model may manipulate the cogs to increase or decrease the flow of time. They may do this in the same phase as the Chronomantic Cogs are set up. If they do so, choose one of the effects opposite. The effect lasts until their next hero phase, or until an enemy Wizard chooses to manipulate the cogs.", "phase" : [ "Hero" ], "when" : "During" }, { "name" : "Speed Up Time", "text" : "Add 2\" to the Move characteristic of all units on the battlefield. In addition, add 2 to charge rolls for all units on the battlefield. ", "phase" : [ "Persistant" ], "when" : "All" }, { "name" : "Slow Down Time", "text" : "The wizard manipulating the cogs can cast 1 additional spell in this hero phase. In addition, re-roll failed save rolls for that wizard.", "phase" : [ "Hero" ], "when" : "During" } ] }
{ "_id" : "nkEmOACTQIZDML", "name" : "Emerald Lifeswarm", "castValue" : 6, "costPerUnit" : 60, "abilities" : [ { "name" : "Summon Emerald Lifeswarm", "text" : "Summon Emerald Lifeswarm has a casting value of 6. If successfully cast, set up an Emerald Lifeswarm model wholly within 15\" of the caster. ", "phase" : [ "Hero" ], "when" : "During" }, { "name" : "Predatory", "text" : "An Emerald Lifeswarm is a predatory endless spell. Emerald Lifeswarms can move up to 10\" and can fly", "phase" : [ "Round", "Hero" ], "when" : "Start" }, { "name" : "Bounteous Healing", "text" : "After this model is set up or after it has moved, pick 1 unit within 1\" of it. You can either heal D3 wounds that have been allocated to that unit or, if no wounds are currently allocated to the unit, you may return a number of slain models to it that have a combined Wounds characteristic equal to or less than the roll of a D3.", "phase" : [ "Round", "Hero" ], "when" : "Start" }, { "name" : "Empowered by Ghyran", "text" : "If your battle is taking place in the Realm of Life, roll a D6 to determine the number of wounds healed or wounds worth of slain models returned by the Emerald Lifeswarm’s Bounteous Healing ability. ", "phase" : [ "Round", "Hero" ], "when" : "Start" } ] }
{ "_id" : "bhOsWgHLIErLhG", "name" : "Germinids of Uhl-Gysh", "castValue" : 7, "costPerUnit" : 40, "abilities" : [ { "name" : "Summon Geminids of Uhl-Gysh", "text" : "Summon Geminids of Uhl-Gysh has a casting value of 7. If successfully cast, set up both models within 6\" of each other and both wholly within 18\" of the caster. You must then nominate one model to be the Light Geminid and the other to be the Shadow Geminid.", "phase" : [ "Hero" ], "when" : "During" }, { "name" : "Predatory", "text" : "Geminids of Uhl-Gysh is a predatory endless spell. They can move up to 8\" and can fly. When you move this endless spell, the second model must finish its move within 6\" of the first. If this is impossible, this spell is dispelled.", "phase" : [ "Round", "Hero" ], "when" : "Start" }, { "name" : "Unleashed", "text" : "When this model is set up, the player who set it up can immediately make a move with it. ", "phase" : [ "Round", "Hero" ], "when" : "Start" }, { "name" : "Tendrils of Shadow and Light", "text" : "After the Shadow Geminid model has moved, each unit that has any models it passed across suffers D3 mortal wounds. In addition, subtract 1 (to a minimum of 1) from the Attacks characteristic of melee weapons used by each unit that has any models it passed across until the end of the battle round. After the Light Geminid model has moved, each unit that has any models it passed across suffers D3 mortal wounds. In addition, subtract 1 from hit rolls for each unit that has any models it passed across until the end of the battle round.", "phase" : [ "Persistant" ], "when" : "During" }, { "name" : "Empowered by Hysh", "text" : "If your battle is taking place in the Realm of Light, you can re-roll the dice to determine the number of mortal wounds suffered by a unit that has any models passed across by the Light Geminid.", "phase" : [ "Round", "Hero" ], "when" : "Start" }, { "name" : "Empowered by Ulgu", "text" : "If your battle is taking place in the Realm of Shadow, you can re-roll the dice to determine the number of mortal wounds suffered by a unit that has any models passed across by the Shadow Geminid.", "phase" : [ "Round", "Hero" ], "when" : "Start" } ] }
{ "_id" : "UBsYIYRyotPRhM", "name" : "Prismatic Palisade", "castValue" : 5, "costPerUnit" : 30, "abilities" : [ { "name" : "Summon Prismatic Palisade", "text" : "Summon Prismatic Palisade has a casting value of 5. If successfully cast, set up a Prismatic Palisade model wholly within 18\" of the caster. ", "phase" : [ "Hero" ], "when" : "During" }, { "name" : "Blinding Light", "text" : "At the start of each turn, roll a dice for each unit within 6\" of this model. On a 5+ subtract 1 from hit rolls for attacks made by that unit until the end of the turn.", "phase" : [ "Round" ], "when" : "Start" }, { "name" : "Dazzling Brilliance", "text" : "A model cannot see another model if an imaginary straight line, 1mm wide, drawn from the centre of its base to the centre of the other model’s base passes over this model.", "phase" : [ "Persistant" ], "when" : "All" }, { "name" : "Empowered by Hysh", "text" : "If your battle is taking place in the Realm of Light, add 1 to rolls made to determine if a unit is affected by this model’s Blinding Light ability.", "phase" : [ "Persistant" ], "when" : "All" } ] }
{ "_id" : "FSkfDqhsMDcHgP", "name" : "Purple Sun of Shyish", "castValue" : 8, "costPerUnit" : 100, "abilities" : [ { "name" : "Summon Purple Sun of Shyish", "text" : "Summon Purple Sun of Shyish has a casting value of 8. If successfully cast, set up a Purple Sun of Shyish model wholly within 6\" of the caster." }, { "name" : "Predatory", "text" : "The Purple Sun of Shyish is a predatory endless spell. It can move up to 9\" and can fly." }, { "name" : "Swirling Death", "text" : "When this model is set up, the player who set it up can immediately make a move with it. " }, { "name" : "End Given Form", "text" : "After this model has moved, each unit that has any models it passed across, and each other unit that is within 1\" of it at the end of its move, is subjected to the Purple Sun’s baleful energies. For each unit subjected to the baleful energies, roll a number of dice equal to the number of models in that unit. For each 6+ one model in that unit is slain. If the unit has Wounds characteristic of 6 or more, it suffers 2D6 mortal wounds instead." }, { "name" : "Visage of Xereus", "text" : "Subtract 1 from the Bravery characteristic of all units while they are within 6\" of this model." }, { "name" : "Empowered by Shyish", "text" : "If your battle is taking place in the Realm of Death, this model can move 12\" instead of 9\"." } ] }
{ "_id" : "mkGQWdiUGlteTo", "name" : "Quicksilver Swords", "castValue" : 6, "costPerUnit" : 20, "abilities" : [ { "name" : "Summon Quicksilver Swords", "text" : "Summon Quicksilver Swords has a casting value of 6. If successfully cast, set up a Quicksilver Swords model wholly within 10\" of the caster." }, { "name" : "Predatory", "text" : "Quicksilver Swords is a predatory endless spell. It can move up to 8\" and can fly." }, { "name" : "Volley of Blades", "text" : "When this model is set up, the player who set it up can immediately make a move with it. " }, { "name" : "Dancing Blades", "text" : "After this model has moved, you can pick 1 unit within 6\" of it and roll 12 dice. For each roll of 6+ that unit suffers 1 mortal wound. If the unit being rolled for is a Chaos unit, it suffers 1 mortal wound for each roll of 5+ instead." }, { "name" : "Empowered by Chamon", "text" : "If your battle is taking place in the Realm of Metal, you can roll 15 dice for this model’s Dancing Blades ability instead of 12." } ] }
{ "_id" : "qmxDYCOPSQFBYw", "name" : "Ravenak’s Gnashing Jaws", "castValue" : 8, "costPerUnit" : 40, "abilities" : [ { "name" : "Summon Ravenak’s Gnashing Jaws", "text" : "Summon Ravenak’s Gnashing Jaws has a casting value of 8. If successfully cast, set up a Ravenak’s Gnashing Jaws model wholly within 6\" of the caster" }, { "name" : "Predatory", "text" : "Ravenak’s Gnashing Jaws is a predatory endless spell. It can move up to 12\" and can fly." }, { "name" : "Volley of Blades", "text" : "When this model is set up, the player who set it up can immediately make a move with it." }, { "name" : "Ravening Hunger", "text" : "After this model has moved, each unit that has any models it passed across, and each other unit that is within 1\" of it at the end of its move, suffers D3 mortal wounds. In addition, subtract 1 from the Bravery characteristic of each unit that each unit that has any models it passed across until the end of the battle round." }, { "name" : "Empowered by Ghur", "text" : "If your battle is taking place in the Realm of Beasts, this model can move up to D6+12\" instead of 12\"." } ] }
{ "_id" : "ESSWtAEYhxXxea", "name" : "Suffocating Gravetide", "castValue" : 6, "costPerUnit" : 30, "abilities" : [ { "name" : "Summon Suffocating Gravetide", "text" : "Summon Suffocating Gravetide has a casting value of 6. If successfully cast, set up a Suffocating Gravetide model wholly within 4\" of the caster. " }, { "name" : "Predatory", "text" : "A Suffocating Gravetide is a predatory endless spell. It can move up to 8\" and can fly. " }, { "name" : "Necrotic Tide", "text" : "When this model is set up, the player who set it up can immediately make a move with it." }, { "name" : "Pulled to the Grave", "text" : "After this model has moved, each unit that has any models it passed across suffers D3 mortal wounds. In addition, subtract 1 from the Bravery characteristic of each unit that has any models it passed across until the end of the battle round." }, { "name" : "Roiling Barricade", "text" : "When a missile weapon targets a unit that has all of its models within 1\" of this model, the target unit receives the benefit of cover if the attacking unit is closer to this model than it is to the target unit. " }, { "name" : "Empowered by Shyish", "text" : "If your battle is taking place in the Realm of Death, this model can move up to 12\" instead of 8\"." } ] }
{ "_id" : "ytPIVTCZJxkGdC", "name" : "Burning Head", "castValue" : 7, "costPerUnit" : 30, "abilities" : [ { "name" : "Summon Burning Head", "text" : "Summon Burning Head has a casting value of 7. If successfully cast, set up a Burning Head model wholly within 3\" of the caster" }, { "name" : "Predatory", "text" : " The Burning Head is a predatory endless spell. It can move up to 9\" and can fly" }, { "name" : "Fiery Missile", "text" : "When this model is set up, the player who set it up can immediately make a move with it. " }, { "name" : "Flaming Skull", "text" : "After this model has moved, each unit that has any models it passed across, and each other unit that is within 1\" of it at the end of its move, suffers D3 mortal wounds. " }, { "name" : "Wrathful Aura", "text" : "Re-roll hit rolls of 1 for attacks made by units while they are wholly within 9\" of this model. " }, { "name" : "Empowered by Aqshy", "text" : "If your battle is taking place in the Realm of Fire, add 1 to the number of mortal wounds inflicted by the Flaming Skull ability." } ] }
{ "_id" : "tIGALfxLezZJlU", "name" : "Soulsnare Shackles", "castValue" : 5, "costPerUnit" : 20, "abilities" : [ { "name" : "Summon Soulsnare Shackles", "text" : "Summon Soulsnare Shackles has a casting value of 5. If successfully cast, set up a Soulsnare Shackles model wholly within 12\" of the caster, then set up the second and third Soulsnare Shackles models wholly within 6\" of the first. " }, { "name" : "Bound for the Great Oubliette", "text" : "At the start of the movement phase, roll a dice for each unit within 6\" of any Soulsnare Shackles models. On a 3+ halve the move characteristic of that unit until the end of that phase. On a 6 that unit also suffers D3 mortal wounds. " }, { "name" : "Empowered by Shyish", "text" : "If your battle is taking place in the Realm of Death, the second and third Soulsnare Shackles models can be set up wholly within 9\" of the first, instead of 6\"." } ] }
{ "_id" : "bZfxzpsuoEVoJI", "name" : "Malevolent Maelstrom", "castValue" : 7, "costPerUnit" : 20, "abilities" : [ { "name" : "Summon Malevolent Maelstrom", "text" : "Summon Malevolent Maelstrom has a casting value of 7. If successfully cast, set up a Malevolent Maelstrom model wholly within 18\" of the caster. " }, { "name" : "Predatory", "text" : "A Malevolent Maelstrom is a predatory endless spell. It can move up to 8\" and can fly." }, { "name" : "Devourer of Sorcery and Souls", "text" : "If a Wizard successfully casts a spell within 12\" of a Malevolent Maelstrom, and that spell is not unbound, the Malevolent Maelstrom will attempt to steal the energies of the spell. Make an additional unbinding roll for that spell. If this unbinding roll is successful, the spell is unbound and 1 energy point is allocated to this model./n In addition, 1 energy point is allocated to this model for each unit destroyed within 6\" of this model. " }, { "name" : "Morbid Detonation", "text" : "At the end of each battle round, roll a dice for each Malevolent Maelstrom and add the number of energy points allocated to that model to the roll. On a 7+ that Malevolent Maelstrom explodes. Each unit within 3D6\" of the model that exploded suffers D3 mortal wounds. The model that exploded is then dispelled." }, { "name" : "Empowered by Shyish", "text" : "If your battle is taking place in the Realm of Death, allocate 1 additional energy point to this model at the start of each battle round." } ] }
{ "_id" : "uwxiesIKBSnQsf", "name" : "Umbral Spellportal", "castValue" : 5, "costPerUnit" : 60, "abilities" : [ { "name" : "Summon Umbral Spellportal", "text" : "Summon Umbral Spellportal has a casting value of 5. If successfully cast, set up the first Umbral Spellportal model wholly within 12\" of the caster, and then set up the second Umbral Spellportal model wholly within 18\" of the first." }, { "name" : "Arcane Passage", "text" : "If a Wizard successfully casts a spell while they are within 1\" of an Umbral Spellportal model, the range and visibility of the spell can be measured from the other Umbral Spellportal model from this endless spell./n If a predatory endless spell finishes a move within 6\" of an Umbral Spellportal model, remove it from the battlefield and set it up again anywhere within 6\" of the other Umbral Spellportal model from this endless spell." }, { "name" : "Empowered by Ulgu", "text" : "If your battle is taking place in the Realm of Shadow, the second Umbral Spellportal model can be set up anywhere on the battlefield, instead of within 18\" of the first" } ] }
{ "_id" : "TldFSMmgIkrOhK", "name" : "Celestian Vortex", "castValue" : 6, "costPerUnit" : 40, "keywords" : [ "STORMCAST ETERNAL" ], "abilities" : [ { "name" : "Summon Celestian Vortex", "text" : "Summon Celestian Vortex has a casting value of 6. Only Stormcast Eternal Wizards can attempt to cast this spell. If successfully cast, set up a Celestian Vortex model wholly within 12\" of the caster." }, { "name" : "Predatory", "text" : "A Celestian Vortex is a predatory endless spell. A Celestian Vortex can move up to 8\" and can fly." }, { "name" : "Swirling Doom", "text" : "When this model is set up, the player who set it up can immediately make a move with it." }, { "name" : "Storm of Vengance", "text" : "After moving this model, you can pick 1 enemy unit within 1\" of this model and roll 12 dice. For each roll of 6+, that unit suffers 1 mortal wound. If the unit being rolled for is a Chaos unit, it suffers 1 mortal wound for each roll of 5+ instead." }, { "name" : "Tornado of Magic", "text" : "Subtract 1 from hit rolls for attacks made with missile weapons by units while they are within 6\" of this model." } ] }
{ "_id" : "kdnMOELYMDWdAR", "name" : "Everblaze Comet", "castValue" : 6, "costPerUnit" : 100, "keywords" : [ "STORMCAST ETERNALS" ], "abilities" : [ { "name" : "Summon Everblaze Comet", "text" : "Summon Everblaze Comet has a casting value of 6. Only Stormcast Eternal Wizards can attempt to cast this spell. If successfully cast, set up an Everblaze Comet model wholly within 36\" of the caster." }, { "name" : "Burning Vengeance", "text" : "After this model is set up, roll a dice for each unit within 10\" of this model. On a 1-2, that unit suffers 1 mortal wound. On a 3-4, that unit suffers D3 mortal wounds. On a 5-6, that unit suffers 3 mortal wounds. In addition, at the start of each battle round, roll a dice for each unit within 5\" of this model. On a 1-3, that unit suffers 1 mortal wound. On a 4-6, that unit suffers D3 mortal wounds." }, { "name" : "Arcane Disruption", "text" : "Subtract 1 from casting rolls for Wizards while they are within 5\" of this model." } ] }
{ "_id" : "zpetMkhRJyuiwo", "name" : "Dais Arcanum", "castValue" : 6, "costPerUnit" : 40, "keywords" : [ "STORMCAST ETERNALS" ], "abilities" : [ { "name" : "Summon Dais Arcanum", "text" : "Summon Dais Arcanum has a casting value of 6. Only Stormcast Eternal Wizards that do not have a Wounds characteristic of 6 or more, are not part of a unit with 2 or more models, and are not already on a Dais Arcanum, can attempt to cast this spell. If successfully cast, set up a Dais Arcanum model within 1\" of the caster and more than 3\" from any enemy models and then place the caster on top of it./n As long as the Dais Arcanum remains on the battlefield, the Dais Arcanum and the caster are treated as a single model from the caster’s army that uses the caster’s warscroll as well as the endless spell rules. It is treated as an enemy model by the opposing player’s army. A model on a Dais Arcanum has a Move characteristic of 12\" and can fly./n If a model on a Dais Arcanum is slain, that Dais Arcanum is immediately dispelled and removed from play along with the slain model./n If a Dais Arcanum is dispelled and the model on it has not been slain, set up that model wholly within 6\" of the Dais Arcanum and more than 3\" from any enemy models, and then remove the Dais Arcanum from play. If it is impossible to set up that model, it is slain." }, { "name" : "Arcane Enhancement", "text" : "While a model is on a Dais Arcanum, it can attempt to unbind one extra spell in each enemy hero phase. In addition, if a model on a Dais Arcanum attempts to dispel that Dais Arcanum, the attempt is automatically successful (do not roll any dice)." }, { "name" : "Winds of Azyr", "text" : "While a model is on a Dais Arcanum, add 1 to save rolls for attacks that target that model." } ] }
{ "_id" : "LpfMsiRAVWaOpp", "name" : "Shyish Reaper", "keywords" : [ "NIGHTHAUNT", "NAGASH" ], "costPerUnit" : 40, "castValue" : 7, "abilities" : [ { "name" : "Summon Shyish Reaper", "text" : "Only Nagash, Supreme Lord of the Undead and Nighthaunt Wizards can attempt to cast Summon Shyish Reaper. It has a casting value of 7. If successfully cast, set up a Shyish Reaper model wholly within 6\" of the caster." }, { "name" : "Sweeping Death", "text" : "Shyish Reaper is a predatory endless spell. It can move up to 8\" and can fly." }, { "name" : "Winds of Azyr", "text" : "When this model is set up, the player who set it up can immediately make a move with it." }, { "name" : "Soul Reaper", "text" : "Before moving a Shyish Reaper, pivot the model on the centre of its base so that it points lengthways in the direction you wish it to move. Then move it in a straight line in that direction. The initial pivot is free and does not count towards the distance the model moves. \nAfter this model has moved, roll a dice for each model that it moved over (including models it moved over when it pivoted); if the roll is equal to or greater than the model’s Save characteristic, that model’s unit suffers 1 mortal wound." }, { "name" : "Empowered by Shyish", "text" : "If your battle is being fought in the Realm of Shyish, a Shyish Reaper can move 12\" instead of 8\"." } ] }
{ "_id" : "YkfplpOMVgoZuv", "name" : "Mortalis Terminexus", "castValue" : 6, "costPerUnit" : 60, "keywords" : [ "NIGHTHAUNT", "NAGASH" ], "abilities" : [ { "name" : "Summon Mortalis Terminexus", "text" : "Only Nagash, Supreme Lord of the Undead and Nighthaunt Wizards can attempt to cast Summon Mortalis Terminexus. It has a casting value of 6. If successfully cast, set up a Mortalis Terminexus model wholly within 18\" of the caster" }, { "name" : "Predatory", "text" : "Mortalis Terminexus is a predatory endless spell. It can move 8\" and can fly" }, { "name" : "Empowered by Shyish", "text" : "If your battle is being fought in the Realm of Shyish, the range of this model’s Keeper of Mortality ability (whether the controlling player chose to reverse or hasten time) is 12\" instead of 6\"." } ] }
{ "_id" : "LSrZCmONfGhBTE", "name" : "Vault of Souls", "castValue" : 6, "costPerUnit" : 40, "keywords" : [ "NIGHTHAUNT", "NAGASH" ], "abilities" : [ { "name" : "Vault of Souls", "text" : "Only Nagash, Supreme Lord of the Undead and Nighthaunt Wizards can attempt to cast Summon Vault of Souls. It has a casting value of 6. If successfully cast, set up a Vault of Souls model wholly within 18\" of the caster" }, { "name" : "Predatpry", "text" : "Vault of Souls is a predatory endless spell. It can move 8\" and can fly." }, { "name" : "Soul Siphon", "text" : "After this model is set up or has moved, roll a dice for each model within 6\" of it. On a 6+, that model’s unit suffers 1 mortal wound." }, { "name" : "Soul Eruption", "text" : "Should a Vault of Souls glut itself too greedily, the captured spirits within will burst free, tearing at those nearby in their desperation to escape. \nKeep track of the number of mortal wounds inflicted by this model. If the total is 20 or more at the end of any phase, all units within 6\" of this model suffer D6 mortal wounds, and then this model is dispelled." } ] }
